{
  "Serilog": {
    "MinimumLevel": {
      "Default": "Debug"
    },
    "WriteTo": [
      {
        "Name": "Console",
        "Args": {
          "RestrictedToMinimumLevel": "Information",
          "OutputTemplate": "{Timestamp:MM/dd/yyyy HH:mm:ss.fff K} [{Level:u3}] {Message}{NewLine}"
        }
      },
      {
        "Name": "File",
        "Args": {
          "Path": "logs\\logs-.txt",
          "OutputTemplate": "{Timestamp:MM/dd/yyyy HH:mm:ss.fff K} [{Level:u3}] {Message}{NewLine}{Exception}",
          "RollingInterval": "Day"
        }
      }
    ]
  }
}